<svg width="18" height="12" viewBox="0 0 18 12" fill="none" xmlns="http://www.w3.org/2000/svg">
<path d="M9.47557 7.56289L16.0756 0.962891L17.9609 2.84822L9.47557 11.3336L0.990234 2.84822L2.87557 0.962891L9.47557 7.56289Z" fill="#0C0D36"/>
</svg>
