<svg width="20" height="21" viewBox="0 0 20 21" fill="none" xmlns="http://www.w3.org/2000/svg">
<rect width="8.42112" height="8.42112" rx="2" fill="#B4B4B4"/>
<rect x="11.5787" width="8.42112" height="8.42112" rx="2" fill="#B4B4B4"/>
<rect x="11.5789" y="11.5801" width="8.42112" height="8.42112" rx="2" fill="#B4B4B4"/>
<rect y="11.5801" width="8.42112" height="8.42112" rx="2" fill="#B4B4B4"/>
</svg>
