<svg width="13" height="13" viewBox="0 0 13 13" fill="none" xmlns="http://www.w3.org/2000/svg">
<path d="M9.17133 0.999902L7.838 2.33324H1.33333V11.6666H10.6667V5.1619L12 3.82857V12.3332C12 12.51 11.9298 12.6796 11.8047 12.8046C11.6797 12.9297 11.5101 12.9999 11.3333 12.9999H0.666667C0.489856 12.9999 0.320286 12.9297 0.195262 12.8046C0.0702379 12.6796 0 12.51 0 12.3332V1.66657C0 1.48976 0.0702379 1.32019 0.195262 1.19516C0.320286 1.07014 0.489856 0.999902 0.666667 0.999902H9.17133V0.999902ZM11.6567 0.399902L12.6 1.3439L6.472 7.4719L5.53067 7.4739L5.52933 6.52924L11.6567 0.399902V0.399902Z" fill="#0C0D36"/>
</svg>
